<?xml version="1.0" encoding="UTF-8"?>
<session version="1.0">
<refactoring comment="Encapsulate field &apos;dominio.JugadorImpl.cantidadDeManos&apos; in &apos;dominio.JugadorImpl&apos;&#x0D;&#x0A;- Original project: &apos;comun&apos;&#x0D;&#x0A;- Original element: &apos;dominio.JugadorImpl.cantidadDeManos&apos;&#x0D;&#x0A;- Getter method name: &apos;getCantidadDeManos&apos;&#x0D;&#x0A;- Setter method name: &apos;setCantidadDeManos&apos;&#x0D;&#x0A;- Field visibility: &apos;public&apos;&#x0D;&#x0A;- Use getter and setter methods in declaring type" comments="false" declaring="true" description="Encapsulate field &apos;cantidadDeManos&apos;" flags="589830" getter="getCantidadDeManos" id="org.eclipse.jdt.ui.self.encapsulate" input="/src\/main\/java&lt;dominio{JugadorImpl.java[JugadorImpl^cantidadDeManos" insertion="12" setter="setCantidadDeManos" stamp="1448754700839" version="1.0" visibility="1"/>
</session>